<svg width="25" height="25" viewBox="0 0 25 25" fill="none" xmlns="http://www.w3.org/2000/svg">
<path d="M8.22094 17.0454C9.12048 17.0454 9.90437 16.7727 10.5598 16.2C11.2023 15.6273 11.6135 14.8773 11.7934 13.9364H9.90437C9.73731 14.3454 9.506 14.6454 9.22329 14.8636C8.92772 15.0818 8.59361 15.1773 8.22094 15.1773C7.71976 15.1773 7.29569 14.9864 6.96157 14.5909C6.61461 14.2091 6.44755 13.7182 6.44755 13.1454C6.44755 12.5727 6.61461 12.0954 6.94872 11.7136C7.28284 11.3318 7.70691 11.1409 8.22094 11.1409C8.59361 11.1409 8.92772 11.25 9.22329 11.4545C9.51885 11.6591 9.75016 11.9318 9.90437 12.2864H11.7677C11.5878 11.3864 11.1894 10.65 10.5469 10.1045C9.90437 9.55908 9.13333 9.27272 8.23379 9.27272C7.18004 9.27272 6.29334 9.6409 5.59941 10.3773C4.89262 11.1136 4.54565 12.0409 4.54565 13.1318C4.54565 13.8682 4.69986 14.5227 5.02113 15.1227C5.34239 15.7227 5.77932 16.2 6.34474 16.5409C6.91017 16.8818 7.527 17.0454 8.22094 17.0454Z" fill="#444444"/>
<path d="M16.8052 9.27272C16.0855 9.27272 15.4558 9.47727 14.9033 9.87272V6.81818H13.0271V16.8409H14.4149L14.6334 16.2273C15.2502 16.7727 15.9699 17.0454 16.8052 17.0454C17.8589 17.0454 18.7199 16.6773 19.4138 15.9409C20.1078 15.2045 20.4547 14.2773 20.4547 13.1591C20.4547 12.0409 20.1078 11.1136 19.4138 10.3773C18.7199 9.6409 17.8589 9.27272 16.8052 9.27272ZM16.651 15.1636C16.1112 15.1636 15.6615 14.9727 15.3016 14.5909C14.9418 14.2091 14.7619 13.7318 14.7619 13.1591C14.7619 12.7773 14.839 12.4364 15.0061 12.1227C15.1603 11.8227 15.3916 11.5773 15.6872 11.4C15.9699 11.2364 16.2911 11.1409 16.651 11.1409C17.0108 11.1409 17.332 11.2364 17.6276 11.4C17.9103 11.5773 18.1416 11.8227 18.2958 12.1227C18.45 12.4364 18.54 12.7773 18.54 13.1591C18.54 13.7318 18.3601 14.2091 18.0003 14.5909C17.6405 14.9727 17.1907 15.1636 16.651 15.1636Z" fill="#444444"/>
<path fill-rule="evenodd" clip-rule="evenodd" d="M19.3182 2.27273H5.68182C3.79903 2.27273 2.27273 3.79903 2.27273 5.68182V19.3182C2.27273 21.201 3.79903 22.7273 5.68182 22.7273H19.3182C21.201 22.7273 22.7273 21.201 22.7273 19.3182V5.68182C22.7273 3.79903 21.201 2.27273 19.3182 2.27273ZM5.68182 0C2.54384 0 0 2.54384 0 5.68182V19.3182C0 22.4562 2.54384 25 5.68182 25H19.3182C22.4562 25 25 22.4562 25 19.3182V5.68182C25 2.54384 22.4562 0 19.3182 0H5.68182Z" fill="#444444"/>
</svg>
