<svg width="371" height="218" viewBox="0 0 371 218" fill="none" xmlns="http://www.w3.org/2000/svg">
<rect y="0.135376" width="371" height="217.035" rx="20" fill="white"/>
<g opacity="0.7">
<path fill-rule="evenodd" clip-rule="evenodd" d="M371 94.2515V196.797C371 207.843 362.046 216.797 351 216.797H20C8.9543 216.797 0 207.843 0 196.797V153.353C2.18546 161.416 12.4872 173.745 41.7375 175.06C83.0113 176.915 211.006 134.25 265.729 110.599C309.507 91.6777 353.841 91.5849 370.536 93.9037L371 94.2515Z" fill="#EEEEEE"/>
<path fill-rule="evenodd" clip-rule="evenodd" d="M371 193.45V196.797C371 207.843 362.046 216.797 351 216.797H20C8.9543 216.797 0 207.843 0 196.797V114.828C27.9484 114.294 74.1929 117.405 119.973 132.487C177.842 151.552 298.212 182.981 371 193.45Z" fill="#F7F7F7"/>
</g>
<path d="M81.7899 172.613V181.013H83.2059V172.613H81.7899ZM89.059 174.581C87.979 174.581 87.163 174.965 86.707 175.853V174.629H85.327V181.013H86.707V177.617C86.803 176.621 87.463 175.889 88.519 175.877C89.479 175.877 90.055 176.465 90.055 177.425V181.013H91.435V177.041C91.435 175.517 90.547 174.581 89.059 174.581ZM96.548 179.549C96.176 179.729 95.876 179.825 95.588 179.825C95.156 179.825 94.904 179.621 94.904 178.961V175.901H96.788V174.869H94.904V173.117H93.536V174.869H92.636V175.901H93.536V179.213C93.536 180.521 94.364 181.073 95.324 181.073C95.864 181.073 96.392 180.905 96.896 180.605L96.548 179.549ZM100.728 174.581C98.8324 174.593 97.5004 175.901 97.5004 177.833C97.5004 179.753 98.7964 181.061 100.764 181.061C101.868 181.061 102.78 180.665 103.404 179.981L102.672 179.201C102.204 179.681 101.568 179.945 100.872 179.945C99.8644 179.945 99.1084 179.333 98.8924 178.349H103.716C103.884 176.045 102.972 174.581 100.728 174.581ZM98.8684 177.341C99.0124 176.321 99.7324 175.685 100.74 175.685C101.784 175.685 102.468 176.309 102.516 177.341H98.8684ZM106.535 175.901V174.629H105.155V181.013H106.535V177.677C106.643 176.585 107.459 175.829 108.743 175.901V174.581C107.735 174.581 106.967 175.037 106.535 175.901ZM113.61 174.581C112.53 174.581 111.714 174.965 111.258 175.853V174.629H109.878V181.013H111.258V177.617C111.354 176.621 112.014 175.889 113.07 175.877C114.03 175.877 114.606 176.465 114.606 177.425V181.013H115.986V177.041C115.986 175.517 115.098 174.581 113.61 174.581ZM120.463 174.581C118.567 174.593 117.235 175.901 117.235 177.833C117.235 179.753 118.531 181.061 120.499 181.061C121.603 181.061 122.515 180.665 123.139 179.981L122.407 179.201C121.939 179.681 121.303 179.945 120.607 179.945C119.599 179.945 118.843 179.333 118.627 178.349H123.451C123.619 176.045 122.707 174.581 120.463 174.581ZM118.603 177.341C118.747 176.321 119.467 175.685 120.475 175.685C121.519 175.685 122.203 176.309 122.251 177.341H118.603ZM128.154 179.549C127.782 179.729 127.482 179.825 127.194 179.825C126.762 179.825 126.51 179.621 126.51 178.961V175.901H128.394V174.869H126.51V173.117H125.142V174.869H124.242V175.901H125.142V179.213C125.142 180.521 125.97 181.073 126.93 181.073C127.47 181.073 127.998 180.905 128.502 180.605L128.154 179.549ZM133.458 172.613V181.013H134.874V174.989L139.35 181.013H140.742V172.613H139.35V178.649L134.85 172.613H133.458ZM145.506 174.581C143.61 174.593 142.278 175.901 142.278 177.833C142.278 179.753 143.574 181.061 145.542 181.061C146.646 181.061 147.558 180.665 148.182 179.981L147.45 179.201C146.982 179.681 146.346 179.945 145.65 179.945C144.642 179.945 143.886 179.333 143.67 178.349H148.494C148.662 176.045 147.75 174.581 145.506 174.581ZM143.646 177.341C143.79 176.321 144.51 175.685 145.518 175.685C146.562 175.685 147.246 176.309 147.294 177.341H143.646ZM153.196 179.549C152.824 179.729 152.524 179.825 152.236 179.825C151.804 179.825 151.552 179.621 151.552 178.961V175.901H153.436V174.869H151.552V173.117H150.184V174.869H149.284V175.901H150.184V179.213C150.184 180.521 151.012 181.073 151.972 181.073C152.512 181.073 153.04 180.905 153.544 180.605L153.196 179.549ZM153.811 174.629L156.163 181.013H157.579L159.199 176.285L160.819 181.013H162.247L164.575 174.629H163.171L161.539 179.645L159.919 174.629H158.491L156.883 179.645L155.227 174.629H153.811ZM168.032 174.581C166.052 174.581 164.696 175.889 164.696 177.809C164.696 179.741 166.052 181.061 168.032 181.061C170 181.061 171.356 179.741 171.356 177.809C171.356 175.889 170 174.581 168.032 174.581ZM168.032 175.757C169.172 175.757 169.976 176.609 169.976 177.833C169.976 179.069 169.172 179.909 168.032 179.909C166.88 179.909 166.076 179.069 166.076 177.833C166.076 176.609 166.88 175.757 168.032 175.757ZM174.176 175.901V174.629H172.796V181.013H174.176V177.677C174.284 176.585 175.1 175.829 176.384 175.901V174.581C175.376 174.581 174.608 175.037 174.176 175.901ZM181.91 181.013H183.542L180.998 177.101L183.362 174.629H181.778L178.958 177.485V172.109H177.578V181.013H178.958V179.225L180.038 178.085L181.91 181.013ZM193.449 174.665L194.037 173.417C193.257 172.901 192.189 172.553 191.097 172.553C189.273 172.553 188.037 173.453 188.037 174.893C188.037 177.881 192.573 176.837 192.573 178.709C192.573 179.357 191.985 179.729 191.001 179.729C190.101 179.729 189.021 179.297 188.157 178.505L187.545 179.729C188.409 180.521 189.657 181.061 190.977 181.061C192.825 181.061 194.145 180.137 194.145 178.637C194.157 175.613 189.621 176.597 189.621 174.761C189.621 174.197 190.161 173.885 190.989 173.885C191.625 173.885 192.537 174.113 193.449 174.665ZM199.522 174.581C198.43 174.581 197.614 174.977 197.158 175.877V172.109H195.778V181.013H197.158V177.869C197.158 176.741 197.842 175.889 198.982 175.877C199.942 175.877 200.518 176.465 200.518 177.425V181.013H201.898V177.041C201.898 175.517 201.01 174.581 199.522 174.581ZM208.929 181.013L208.917 176.825C208.905 175.421 207.981 174.581 206.337 174.581C205.125 174.581 204.477 174.857 203.589 175.385L204.153 176.345C204.789 175.913 205.425 175.697 206.037 175.697C207.045 175.697 207.561 176.177 207.561 176.981V177.173H205.629C204.093 177.185 203.217 177.929 203.217 179.093C203.217 180.221 204.081 181.073 205.461 181.073C206.385 181.073 207.117 180.797 207.573 180.233V181.013H208.929ZM205.749 179.981C204.981 179.981 204.513 179.609 204.513 179.033C204.513 178.421 204.933 178.181 205.833 178.181H207.561V178.769C207.489 179.465 206.733 179.981 205.749 179.981ZM212.156 175.901V174.629H210.776V181.013H212.156V177.677C212.264 176.585 213.08 175.829 214.364 175.901V174.581C213.356 174.581 212.588 175.037 212.156 175.901ZM216.183 171.977C215.727 171.977 215.379 172.325 215.379 172.805C215.379 173.273 215.727 173.621 216.183 173.621C216.639 173.621 216.987 173.273 216.987 172.805C216.987 172.325 216.639 171.977 216.183 171.977ZM215.499 174.629V181.013H216.867V174.629H215.499ZM222.641 174.581C221.561 174.581 220.745 174.965 220.289 175.853V174.629H218.909V181.013H220.289V177.617C220.385 176.621 221.045 175.889 222.101 175.877C223.061 175.877 223.637 176.465 223.637 177.425V181.013H225.017V177.041C225.017 175.517 224.129 174.581 222.641 174.581ZM231.258 174.629V175.661C230.814 174.965 230.082 174.569 229.098 174.581C227.406 174.593 226.266 175.817 226.266 177.617C226.266 179.453 227.418 180.701 229.146 180.701C230.106 180.701 230.826 180.317 231.258 179.621V180.425C231.258 181.529 230.466 182.237 229.254 182.237C228.474 182.237 227.85 181.985 227.25 181.541L226.662 182.537C227.442 183.065 228.318 183.377 229.314 183.377C231.318 183.377 232.626 182.225 232.626 180.389V174.629H231.258ZM229.422 179.621C228.318 179.621 227.574 178.805 227.562 177.653C227.574 176.513 228.33 175.697 229.422 175.697C230.502 175.697 231.258 176.501 231.258 177.653C231.258 178.805 230.502 179.621 229.422 179.621ZM241.572 172.613H238.224V181.013H239.64V178.481H241.572C243.684 178.481 244.896 177.377 244.896 175.481C244.896 173.657 243.684 172.613 241.572 172.613ZM241.512 177.209H239.64V173.885H241.512C242.808 173.885 243.54 174.413 243.54 175.517C243.54 176.657 242.808 177.209 241.512 177.209ZM246.274 172.109V181.013H247.654V172.109H246.274ZM254.937 181.013L254.925 176.825C254.913 175.421 253.989 174.581 252.345 174.581C251.133 174.581 250.485 174.857 249.597 175.385L250.161 176.345C250.797 175.913 251.433 175.697 252.045 175.697C253.053 175.697 253.569 176.177 253.569 176.981V177.173H251.637C250.101 177.185 249.225 177.929 249.225 179.093C249.225 180.221 250.089 181.073 251.469 181.073C252.393 181.073 253.125 180.797 253.581 180.233V181.013H254.937ZM251.757 179.981C250.989 179.981 250.521 179.609 250.521 179.033C250.521 178.421 250.941 178.181 251.841 178.181H253.569V178.769C253.497 179.465 252.741 179.981 251.757 179.981ZM260.048 179.549C259.676 179.729 259.376 179.825 259.088 179.825C258.656 179.825 258.404 179.621 258.404 178.961V175.901H260.288V174.869H258.404V173.117H257.036V174.869H256.136V175.901H257.036V179.213C257.036 180.521 257.864 181.073 258.824 181.073C259.364 181.073 259.892 180.905 260.396 180.605L260.048 179.549ZM264.167 173.249C264.455 173.249 264.779 173.357 265.043 173.549L265.571 172.493C265.163 172.193 264.647 172.049 264.131 172.049C263.027 172.049 261.935 172.757 261.935 174.245V174.869H261.095V175.901H261.935V181.013H263.303V175.901H264.971V174.869H263.303V174.113C263.303 173.513 263.699 173.249 264.167 173.249ZM268.403 174.581C266.423 174.581 265.067 175.889 265.067 177.809C265.067 179.741 266.423 181.061 268.403 181.061C270.371 181.061 271.727 179.741 271.727 177.809C271.727 175.889 270.371 174.581 268.403 174.581ZM268.403 175.757C269.543 175.757 270.347 176.609 270.347 177.833C270.347 179.069 269.543 179.909 268.403 179.909C267.251 179.909 266.447 179.069 266.447 177.833C266.447 176.609 267.251 175.757 268.403 175.757ZM274.547 175.901V174.629H273.167V181.013H274.547V177.677C274.655 176.585 275.471 175.829 276.755 175.901V174.581C275.747 174.581 274.979 175.037 274.547 175.901ZM286.218 174.581C285.054 174.581 284.202 175.049 283.794 176.117C283.494 175.145 282.714 174.581 281.574 174.581C280.518 174.581 279.702 174.965 279.258 175.865V174.629H277.89V181.013H279.258V177.857C279.258 176.741 279.93 175.901 281.034 175.865C281.97 175.865 282.534 176.453 282.534 177.425V181.013H283.914V177.857C283.914 176.741 284.574 175.901 285.666 175.865C286.602 175.865 287.178 176.453 287.178 177.425V181.013H288.558V177.041C288.558 175.517 287.682 174.581 286.218 174.581Z" fill="#7B7B7B"/>
<g clip-path="url(#clip0)">
<path d="M154.192 95.1152V96.4271C154.192 96.8308 154.491 97.1336 154.889 97.1336H157.575C158.703 97.1336 159.598 98.0418 159.598 99.1856C159.598 100.329 158.703 101.238 157.575 101.238H154.192V104.837C154.192 106.149 153.164 107.192 151.87 107.192C150.577 107.192 149.549 106.149 149.549 104.837V91.583C149.549 90.8093 150.146 90.2037 150.909 90.2037H158.139C159.3 90.2037 160.228 91.1457 160.228 92.323C160.228 93.5004 159.3 94.4424 158.139 94.4424H154.889C154.491 94.4087 154.192 94.7451 154.192 95.1152Z" fill="#005BF0"/>
<path d="M164.64 93.366C165.933 93.366 166.961 94.4088 166.961 95.7208V104.669C166.961 105.981 165.933 107.024 164.64 107.024C163.346 107.024 162.318 105.981 162.318 104.669V95.7208C162.318 94.4088 163.346 93.366 164.64 93.366Z" fill="#005BF0"/>
<path d="M181.754 94.5433C182.682 95.5861 183.147 96.9654 183.147 98.7147V104.669C183.147 105.981 182.118 107.024 180.825 107.024C179.531 107.024 178.503 105.981 178.503 104.669V99.3202C178.503 97.7391 177.906 96.9317 176.745 96.9317C176.248 96.9317 175.85 97.0327 175.518 97.2681C175.187 97.5036 174.921 97.8064 174.755 98.2101C174.59 98.6137 174.49 99.1183 174.49 99.7238V104.669C174.49 105.981 173.462 107.024 172.168 107.024C170.875 107.024 169.847 105.981 169.847 104.669V95.3843C169.847 94.2742 170.742 93.3659 171.837 93.3659C172.6 93.3659 173.296 93.8032 173.628 94.5433L173.76 94.8124C174.822 93.6014 176.248 92.9959 178.006 92.9959C179.565 92.9622 180.792 93.5005 181.754 94.5433Z" fill="#005BF0"/>
<path d="M209.58 101.305H200.725C200.891 102.079 201.189 102.684 201.653 103.088C202.118 103.492 202.715 103.693 203.478 103.693C203.842 103.693 204.174 103.626 204.506 103.525C204.837 103.424 205.103 103.29 205.335 103.088C205.401 103.054 205.468 102.987 205.501 102.92C205.832 102.583 206.264 102.381 206.728 102.381H206.927C208.817 102.381 209.613 104.804 208.088 105.981C208.021 106.015 207.955 106.082 207.922 106.115C206.662 107.024 205.169 107.495 203.478 107.495C201.388 107.495 199.63 106.788 198.237 105.409C196.844 104.03 196.148 102.281 196.148 100.228C196.148 98.8493 196.479 97.6046 197.11 96.4945C197.74 95.3844 198.602 94.5097 199.73 93.9042C200.857 93.2987 202.085 92.9623 203.478 92.9623C204.904 92.9623 206.197 93.265 207.292 93.9042C208.419 94.5434 209.282 95.3844 209.912 96.4945C210.542 97.5709 210.841 98.782 210.841 100.128C210.841 100.767 210.277 101.305 209.58 101.305ZM201.786 97.1336C201.322 97.5037 200.99 98.0083 200.791 98.6811H206.264C205.832 97.2682 204.904 96.5954 203.478 96.5954C202.814 96.5954 202.25 96.7972 201.786 97.1336Z" fill="#005BF0"/>
<path d="M221.719 94.5434V96.3936C221.719 97.0664 221.189 97.6383 220.492 97.6383H219.928C219.099 97.6383 218.535 97.8401 218.17 98.2101C217.806 98.6138 217.607 99.2193 217.607 100.094V104.703C217.607 106.015 216.578 107.057 215.285 107.057C213.991 107.057 212.963 106.015 212.963 104.703V95.2835C212.963 94.207 213.826 93.366 214.854 93.366C215.583 93.366 216.247 93.8033 216.578 94.4425L216.777 94.8798C217.673 93.8033 218.9 93.2987 220.492 93.2987C221.155 93.2987 221.719 93.8369 221.719 94.5434Z" fill="#005BF0"/>
<path d="M235.351 94.5433C236.279 95.5861 236.744 96.9654 236.744 98.7147V104.669C236.744 105.981 235.715 107.024 234.422 107.024C233.128 107.024 232.1 105.981 232.1 104.669V99.3202C232.1 97.7391 231.503 96.9317 230.343 96.9317C229.845 96.9317 229.447 97.0327 229.115 97.2681C228.784 97.5036 228.518 97.8064 228.353 98.2101C228.187 98.6137 228.087 99.1183 228.087 99.7238V104.669C228.087 105.981 227.059 107.024 225.766 107.024C224.472 107.024 223.444 105.981 223.444 104.669V95.3843C223.444 94.2742 224.339 93.3659 225.434 93.3659C226.197 93.3659 226.893 93.8032 227.225 94.5433L227.358 94.8124C228.419 93.6014 229.845 92.9959 231.603 92.9959C233.162 92.9622 234.422 93.5005 235.351 94.5433Z" fill="#005BF0"/>
<path d="M252.199 101.305H243.344C243.51 102.079 243.808 102.684 244.273 103.088C244.737 103.492 245.334 103.693 246.097 103.693C246.462 103.693 246.793 103.626 247.125 103.525C247.457 103.424 247.722 103.29 247.954 103.088C248.02 103.054 248.087 102.987 248.12 102.92C248.452 102.583 248.883 102.381 249.347 102.381H249.546C251.437 102.381 252.233 104.804 250.707 105.981C250.641 106.015 250.574 106.082 250.541 106.115C249.281 107.024 247.788 107.495 246.097 107.495C244.007 107.495 242.249 106.788 240.856 105.409C239.463 104.03 238.767 102.281 238.767 100.228C238.767 98.8493 239.099 97.6046 239.729 96.4945C240.359 95.3844 241.221 94.5097 242.349 93.9042C243.477 93.2987 244.704 92.9623 246.097 92.9623C247.523 92.9623 248.816 93.265 249.911 93.9042C251.039 94.5434 251.901 95.3844 252.531 96.4945C253.161 97.5709 253.46 98.782 253.46 100.128C253.427 100.767 252.863 101.305 252.199 101.305ZM244.372 97.1336C243.908 97.5037 243.576 98.0083 243.377 98.6811H248.85C248.418 97.2682 247.49 96.5954 246.064 96.5954C245.4 96.5954 244.836 96.7972 244.372 97.1336Z" fill="#005BF0"/>
<path d="M264.338 95.1825C264.338 96.1917 263.542 96.999 262.547 96.999H261.718C261.353 96.999 261.055 97.3018 261.055 97.6718V104.703C261.055 106.015 260.027 107.057 258.733 107.057C257.44 107.057 256.412 106.015 256.412 104.703V97.6382C256.412 97.2682 256.113 96.9654 255.748 96.9654H254.587C254.223 96.9654 253.924 96.6626 253.924 96.2926V96.1244C253.924 95.9562 253.99 95.788 254.09 95.6535L259.795 89.5646C259.927 89.4301 260.093 89.3628 260.292 89.3628C260.657 89.3628 260.955 89.6656 260.955 90.0356V92.6931C260.955 93.0632 261.254 93.3659 261.619 93.3659H262.581C263.542 93.3659 264.338 94.1733 264.338 95.1825Z" fill="#005BF0"/>
<path d="M194.854 95.1825C194.854 96.1917 194.058 96.999 193.063 96.999H192.234C191.869 96.999 191.571 97.3018 191.571 97.6718V104.703C191.571 106.015 190.543 107.057 189.249 107.057C187.956 107.057 186.928 106.015 186.928 104.703V97.6382C186.928 97.2682 186.629 96.9654 186.264 96.9654H185.103C184.739 96.9654 184.44 96.6626 184.44 96.2926V96.1244C184.44 95.9562 184.506 95.788 184.606 95.6535L190.311 89.5646C190.443 89.4301 190.609 89.3628 190.808 89.3628C191.173 89.3628 191.471 89.6656 191.471 90.0356V92.6931C191.471 93.0632 191.77 93.3659 192.135 93.3659H193.097C194.058 93.3659 194.854 94.1733 194.854 95.1825Z" fill="#005BF0"/>
<path d="M110.744 116.073C107.958 116.073 105.736 113.785 105.736 110.993C105.736 108.168 107.991 105.914 110.744 105.914H115.752V110.993C115.785 113.819 113.53 116.073 110.744 116.073Z" fill="url(#paint0_linear)"/>
<path d="M123.978 101.709H115.785V91.5157H123.978C126.764 91.5157 128.986 93.8033 128.986 96.5954C128.986 99.4211 126.73 101.709 123.978 101.709Z" fill="url(#paint1_linear)"/>
<path d="M131.772 87.3108H115.785V77.1179H131.772C134.558 77.1179 136.78 79.4054 136.78 82.1975C136.78 85.0233 134.525 87.3108 131.772 87.3108Z" fill="url(#paint2_linear)"/>
</g>
<line x1="52.8669" y1="146.18" x2="317.204" y2="146.18" stroke="#E5E5E5"/>
<defs>
<linearGradient id="paint0_linear" x1="138.541" y1="78.9831" x2="91.5074" y2="131.661" gradientUnits="userSpaceOnUse">
<stop stop-color="#005BF0"/>
<stop offset="1" stop-color="#FF00FF"/>
</linearGradient>
<linearGradient id="paint1_linear" x1="137.274" y1="77.8519" x2="90.2406" y2="130.53" gradientUnits="userSpaceOnUse">
<stop stop-color="#005BF0"/>
<stop offset="1" stop-color="#FF00FF"/>
</linearGradient>
<linearGradient id="paint2_linear" x1="132.431" y1="73.5277" x2="85.3974" y2="126.206" gradientUnits="userSpaceOnUse">
<stop stop-color="#005BF0"/>
<stop offset="1" stop-color="#FF00FF"/>
</linearGradient>
<clipPath id="clip0">
<rect x="105.736" y="77.1179" width="158.602" height="38.955" fill="white"/>
</clipPath>
</defs>
</svg>
