<svg width="25" height="25" viewBox="0 0 25 25" fill="none" xmlns="http://www.w3.org/2000/svg">
<path d="M9.34738 18.1818H6.98698V10.6061H9.34738V18.1818ZM9.58289 8.19241C9.58289 7.43386 8.96381 6.81818 8.20116 6.81818C7.43561 6.81818 6.81812 7.43386 6.81812 8.19241C6.81812 8.95122 7.43561 9.5669 8.20116 9.5669C8.96381 9.5669 9.58289 8.95122 9.58289 8.19241ZM18.1818 14.0139C18.1818 11.9803 17.7496 10.472 15.3598 10.472C14.2115 10.472 13.4407 11.0429 13.126 11.6366H13.1238V10.6061H10.8308V18.1818H13.1238V14.4204C13.1238 13.4353 13.376 12.481 14.6043 12.481C15.8158 12.481 15.8551 13.6075 15.8551 14.483V18.1818H18.1818V14.0139Z" fill="#444444"/>
<path fill-rule="evenodd" clip-rule="evenodd" d="M19.3182 2.27273H5.68182C3.79903 2.27273 2.27273 3.79903 2.27273 5.68182V19.3182C2.27273 21.201 3.79903 22.7273 5.68182 22.7273H19.3182C21.201 22.7273 22.7273 21.201 22.7273 19.3182V5.68182C22.7273 3.79903 21.201 2.27273 19.3182 2.27273ZM5.68182 0C2.54384 0 0 2.54384 0 5.68182V19.3182C0 22.4562 2.54384 25 5.68182 25H19.3182C22.4562 25 25 22.4562 25 19.3182V5.68182C25 2.54384 22.4562 0 19.3182 0H5.68182Z" fill="#444444"/>
</svg>
