<svg width="371" height="218" viewBox="0 0 371 218" fill="none" xmlns="http://www.w3.org/2000/svg">
<rect y="0.263672" width="371" height="217.035" rx="20" fill="white"/>
<g opacity="0.7">
<path fill-rule="evenodd" clip-rule="evenodd" d="M371 94.3927V196.939C371 207.984 362.046 216.939 351 216.939H20C8.9543 216.939 0 207.984 0 196.939V153.494C2.18546 161.557 12.4872 173.887 41.7375 175.201C83.0113 177.056 211.006 134.391 265.729 110.74C309.507 91.8189 353.841 91.7262 370.536 94.0449L371 94.3927Z" fill="#EEEEEE"/>
<path fill-rule="evenodd" clip-rule="evenodd" d="M371 193.591V196.939C371 207.984 362.046 216.939 351 216.939H20C8.9543 216.939 0 207.984 0 196.939V114.97C27.9484 114.435 74.1929 117.546 119.973 132.628C177.842 151.694 298.212 183.122 371 193.591Z" fill="#F7F7F7"/>
</g>
<path d="M45.3633 172.741V181.141H46.6953V174.865L49.3473 180.265H50.2713L52.9233 174.865L52.9353 181.141H54.2433V172.741H52.5753L49.8153 178.321L47.0433 172.741H45.3633ZM59.113 174.709C57.133 174.709 55.777 176.017 55.777 177.937C55.777 179.869 57.133 181.189 59.113 181.189C61.081 181.189 62.437 179.869 62.437 177.937C62.437 176.017 61.081 174.709 59.113 174.709ZM59.113 175.885C60.253 175.885 61.057 176.737 61.057 177.961C61.057 179.197 60.253 180.037 59.113 180.037C57.961 180.037 57.157 179.197 57.157 177.961C57.157 176.737 57.961 175.885 59.113 175.885ZM67.549 174.709C66.553 174.709 65.785 175.117 65.317 175.861V172.237H63.937V181.141H65.317V180.037C65.785 180.781 66.553 181.189 67.573 181.189C69.397 181.189 70.597 179.881 70.597 177.973C70.597 176.029 69.361 174.709 67.549 174.709ZM67.261 180.013C66.121 180.013 65.317 179.161 65.317 177.925C65.317 176.725 66.121 175.861 67.261 175.861C68.401 175.861 69.205 176.737 69.205 177.925C69.205 179.149 68.401 180.013 67.261 180.013ZM72.7172 172.105C72.2612 172.105 71.9132 172.453 71.9132 172.933C71.9132 173.401 72.2612 173.749 72.7172 173.749C73.1732 173.749 73.5212 173.401 73.5212 172.933C73.5212 172.453 73.1732 172.105 72.7172 172.105ZM72.0332 174.757V181.141H73.4012V174.757H72.0332ZM75.5034 172.237V181.141H76.8834V172.237H75.5034ZM81.6104 174.709C79.7144 174.721 78.3824 176.029 78.3824 177.961C78.3824 179.881 79.6784 181.189 81.6464 181.189C82.7504 181.189 83.6624 180.793 84.2864 180.109L83.5544 179.329C83.0864 179.809 82.4504 180.073 81.7544 180.073C80.7464 180.073 79.9904 179.461 79.7744 178.477H84.5984C84.7664 176.173 83.8544 174.709 81.6104 174.709ZM79.7504 177.469C79.8944 176.449 80.6144 175.813 81.6224 175.813C82.6664 175.813 83.3504 176.437 83.3984 177.469H79.7504ZM93.3668 172.741H89.7188V181.141H93.4508C95.3468 181.141 96.5108 180.277 96.5108 178.837C96.5108 177.709 95.8388 176.905 94.7108 176.713C95.6228 176.485 96.1868 175.777 96.1868 174.841C96.1868 173.533 95.1068 172.741 93.3668 172.741ZM93.2948 176.221H91.1348V174.013H93.2948C94.1948 174.001 94.7348 174.397 94.7348 175.093C94.7348 175.813 94.1948 176.221 93.2948 176.221ZM93.2948 179.869H91.1348V177.469H93.2948C94.3988 177.457 95.0588 177.913 95.0588 178.657C95.0588 179.437 94.3988 179.881 93.2948 179.869ZM99.4874 176.029V174.757H98.1074V181.141H99.4874V177.805C99.5954 176.713 100.411 175.957 101.695 176.029V174.709C100.687 174.709 99.9194 175.165 99.4874 176.029ZM105.566 174.709C103.586 174.709 102.23 176.017 102.23 177.937C102.23 179.869 103.586 181.189 105.566 181.189C107.534 181.189 108.89 179.869 108.89 177.937C108.89 176.017 107.534 174.709 105.566 174.709ZM105.566 175.885C106.706 175.885 107.51 176.737 107.51 177.961C107.51 179.197 106.706 180.037 105.566 180.037C104.414 180.037 103.61 179.197 103.61 177.961C103.61 176.737 104.414 175.885 105.566 175.885ZM109.088 174.757L111.44 181.141H112.856L114.476 176.413L116.096 181.141H117.524L119.852 174.757H118.448L116.816 179.773L115.196 174.757H113.768L112.16 179.773L110.504 174.757H109.088ZM124.384 176.365L124.888 175.345C124.312 174.937 123.46 174.697 122.656 174.697C121.432 174.697 120.304 175.249 120.304 176.545C120.292 178.849 123.652 178.117 123.652 179.425C123.652 179.905 123.196 180.109 122.608 180.109C121.912 180.109 121.024 179.809 120.472 179.317L119.98 180.301C120.616 180.877 121.612 181.189 122.548 181.189C123.832 181.189 124.996 180.601 124.996 179.293C125.008 176.977 121.612 177.613 121.612 176.437C121.612 175.981 122.008 175.801 122.548 175.801C123.112 175.801 123.82 176.017 124.384 176.365ZM129.013 174.709C127.117 174.721 125.785 176.029 125.785 177.961C125.785 179.881 127.081 181.189 129.049 181.189C130.153 181.189 131.065 180.793 131.689 180.109L130.957 179.329C130.489 179.809 129.853 180.073 129.157 180.073C128.149 180.073 127.393 179.461 127.177 178.477H132.001C132.169 176.173 131.257 174.709 129.013 174.709ZM127.153 177.469C127.297 176.449 128.017 175.813 129.025 175.813C130.069 175.813 130.753 176.437 130.801 177.469H127.153ZM134.819 176.029V174.757H133.439V181.141H134.819V177.805C134.927 176.713 135.743 175.957 137.027 176.029V174.709C136.019 174.709 135.251 175.165 134.819 176.029ZM146.944 181.141L146.932 176.953C146.92 175.549 145.996 174.709 144.352 174.709C143.14 174.709 142.492 174.985 141.604 175.513L142.168 176.473C142.804 176.041 143.44 175.825 144.052 175.825C145.06 175.825 145.576 176.305 145.576 177.109V177.301H143.644C142.108 177.313 141.232 178.057 141.232 179.221C141.232 180.349 142.096 181.201 143.476 181.201C144.4 181.201 145.132 180.925 145.588 180.361V181.141H146.944ZM143.764 180.109C142.996 180.109 142.528 179.737 142.528 179.161C142.528 178.549 142.948 178.309 143.848 178.309H145.576V178.897C145.504 179.593 144.748 180.109 143.764 180.109ZM152.523 174.709C151.443 174.709 150.627 175.093 150.171 175.981V174.757H148.791V181.141H150.171V177.745C150.267 176.749 150.927 176.017 151.983 176.005C152.943 176.005 153.519 176.593 153.519 177.553V181.141H154.899V177.169C154.899 175.645 154.011 174.709 152.523 174.709ZM161.452 172.237V175.861C160.984 175.117 160.216 174.697 159.184 174.697C157.384 174.697 156.148 176.005 156.148 177.925C156.148 179.869 157.372 181.201 159.208 181.201C160.228 181.201 160.996 180.793 161.452 180.049V181.141H162.832V172.237H161.452ZM159.496 180.049C158.332 180.049 157.54 179.185 157.528 177.973C157.54 176.749 158.344 175.873 159.496 175.873C160.648 175.873 161.452 176.737 161.452 177.973C161.452 179.185 160.648 180.049 159.496 180.049ZM174.693 175.033L175.521 174.001C174.705 173.197 173.517 172.705 172.329 172.705C169.845 172.705 167.913 174.541 167.913 176.929C167.913 179.341 169.821 181.201 172.281 181.201C173.469 181.201 174.681 180.661 175.533 179.821L174.693 178.885C174.057 179.497 173.193 179.881 172.353 179.881C170.673 179.881 169.353 178.573 169.353 176.917C169.353 175.261 170.673 173.965 172.353 173.965C173.205 173.965 174.081 174.373 174.693 175.033ZM179.453 174.709C177.473 174.709 176.117 176.017 176.117 177.937C176.117 179.869 177.473 181.189 179.453 181.189C181.421 181.189 182.777 179.869 182.777 177.937C182.777 176.017 181.421 174.709 179.453 174.709ZM179.453 175.885C180.593 175.885 181.397 176.737 181.397 177.961C181.397 179.197 180.593 180.037 179.453 180.037C178.301 180.037 177.497 179.197 177.497 177.961C177.497 176.737 178.301 175.885 179.453 175.885ZM187.949 174.709C186.869 174.709 186.053 175.093 185.597 175.981V174.757H184.217V181.141H185.597V177.745C185.693 176.749 186.353 176.017 187.409 176.005C188.369 176.005 188.945 176.593 188.945 177.553V181.141H190.325V177.169C190.325 175.645 189.437 174.709 187.949 174.709ZM195.438 179.677C195.066 179.857 194.766 179.953 194.478 179.953C194.046 179.953 193.794 179.749 193.794 179.089V176.029H195.678V174.997H193.794V173.245H192.426V174.997H191.526V176.029H192.426V179.341C192.426 180.649 193.254 181.201 194.214 181.201C194.754 181.201 195.282 181.033 195.786 180.733L195.438 179.677ZM199.618 174.709C197.722 174.721 196.39 176.029 196.39 177.961C196.39 179.881 197.686 181.189 199.654 181.189C200.758 181.189 201.67 180.793 202.294 180.109L201.562 179.329C201.094 179.809 200.458 180.073 199.762 180.073C198.754 180.073 197.998 179.461 197.782 178.477H202.606C202.774 176.173 201.862 174.709 199.618 174.709ZM197.758 177.469C197.902 176.449 198.622 175.813 199.63 175.813C200.674 175.813 201.358 176.437 201.406 177.469H197.758ZM207.777 174.709C206.697 174.709 205.881 175.093 205.425 175.981V174.757H204.045V181.141H205.425V177.745C205.521 176.749 206.181 176.017 207.237 176.005C208.197 176.005 208.773 176.593 208.773 177.553V181.141H210.153V177.169C210.153 175.645 209.265 174.709 207.777 174.709ZM215.266 179.677C214.894 179.857 214.594 179.953 214.306 179.953C213.874 179.953 213.622 179.749 213.622 179.089V176.029H215.506V174.997H213.622V173.245H212.254V174.997H211.354V176.029H212.254V179.341C212.254 180.649 213.082 181.201 214.042 181.201C214.582 181.201 215.11 181.033 215.614 180.733L215.266 179.677ZM225.682 174.793L226.27 173.545C225.49 173.029 224.422 172.681 223.33 172.681C221.506 172.681 220.27 173.581 220.27 175.021C220.27 178.009 224.806 176.965 224.806 178.837C224.806 179.485 224.218 179.857 223.234 179.857C222.334 179.857 221.254 179.425 220.39 178.633L219.778 179.857C220.642 180.649 221.89 181.189 223.21 181.189C225.058 181.189 226.378 180.265 226.378 178.765C226.39 175.741 221.854 176.725 221.854 174.889C221.854 174.325 222.394 174.013 223.222 174.013C223.858 174.013 224.77 174.241 225.682 174.793ZM231.755 174.709C230.663 174.709 229.847 175.105 229.391 176.005V172.237H228.011V181.141H229.391V177.997C229.391 176.869 230.075 176.017 231.215 176.005C232.175 176.005 232.751 176.593 232.751 177.553V181.141H234.131V177.169C234.131 175.645 233.243 174.709 231.755 174.709ZM241.163 181.141L241.151 176.953C241.139 175.549 240.215 174.709 238.571 174.709C237.359 174.709 236.711 174.985 235.823 175.513L236.387 176.473C237.023 176.041 237.659 175.825 238.271 175.825C239.279 175.825 239.795 176.305 239.795 177.109V177.301H237.863C236.327 177.313 235.451 178.057 235.451 179.221C235.451 180.349 236.315 181.201 237.695 181.201C238.619 181.201 239.351 180.925 239.807 180.361V181.141H241.163ZM237.983 180.109C237.215 180.109 236.747 179.737 236.747 179.161C236.747 178.549 237.167 178.309 238.067 178.309H239.795V178.897C239.723 179.593 238.967 180.109 237.983 180.109ZM244.39 176.029V174.757H243.01V181.141H244.39V177.805C244.498 176.713 245.314 175.957 246.598 176.029V174.709C245.59 174.709 244.822 175.165 244.39 176.029ZM248.416 172.105C247.96 172.105 247.612 172.453 247.612 172.933C247.612 173.401 247.96 173.749 248.416 173.749C248.872 173.749 249.22 173.401 249.22 172.933C249.22 172.453 248.872 172.105 248.416 172.105ZM247.732 174.757V181.141H249.1V174.757H247.732ZM254.875 174.709C253.795 174.709 252.979 175.093 252.523 175.981V174.757H251.143V181.141H252.523V177.745C252.619 176.749 253.279 176.017 254.335 176.005C255.295 176.005 255.871 176.593 255.871 177.553V181.141H257.251V177.169C257.251 175.645 256.363 174.709 254.875 174.709ZM263.492 174.757V175.789C263.048 175.093 262.316 174.697 261.332 174.709C259.64 174.721 258.5 175.945 258.5 177.745C258.5 179.581 259.652 180.829 261.38 180.829C262.34 180.829 263.06 180.445 263.492 179.749V180.553C263.492 181.657 262.7 182.365 261.488 182.365C260.708 182.365 260.084 182.113 259.484 181.669L258.896 182.665C259.676 183.193 260.552 183.505 261.548 183.505C263.552 183.505 264.86 182.353 264.86 180.517V174.757H263.492ZM261.656 179.749C260.552 179.749 259.808 178.933 259.796 177.781C259.808 176.641 260.564 175.825 261.656 175.825C262.736 175.825 263.492 176.629 263.492 177.781C263.492 178.933 262.736 179.749 261.656 179.749ZM273.805 172.741H270.457V181.141H271.873V178.609H273.805C275.917 178.609 277.129 177.505 277.129 175.609C277.129 173.785 275.917 172.741 273.805 172.741ZM273.745 177.337H271.873V174.013H273.745C275.041 174.013 275.773 174.541 275.773 175.645C275.773 176.785 275.041 177.337 273.745 177.337ZM278.507 172.237V181.141H279.887V172.237H278.507ZM287.17 181.141L287.158 176.953C287.146 175.549 286.222 174.709 284.578 174.709C283.366 174.709 282.718 174.985 281.83 175.513L282.394 176.473C283.03 176.041 283.666 175.825 284.278 175.825C285.286 175.825 285.802 176.305 285.802 177.109V177.301H283.87C282.334 177.313 281.458 178.057 281.458 179.221C281.458 180.349 282.322 181.201 283.702 181.201C284.626 181.201 285.358 180.925 285.814 180.361V181.141H287.17ZM283.99 180.109C283.222 180.109 282.754 179.737 282.754 179.161C282.754 178.549 283.174 178.309 284.074 178.309H285.802V178.897C285.73 179.593 284.974 180.109 283.99 180.109ZM292.282 179.677C291.91 179.857 291.61 179.953 291.322 179.953C290.89 179.953 290.638 179.749 290.638 179.089V176.029H292.522V174.997H290.638V173.245H289.27V174.997H288.37V176.029H289.27V179.341C289.27 180.649 290.098 181.201 291.058 181.201C291.598 181.201 292.126 181.033 292.63 180.733L292.282 179.677ZM296.4 173.377C296.688 173.377 297.012 173.485 297.276 173.677L297.804 172.621C297.396 172.321 296.88 172.177 296.364 172.177C295.26 172.177 294.168 172.885 294.168 174.373V174.997H293.328V176.029H294.168V181.141H295.536V176.029H297.204V174.997H295.536V174.241C295.536 173.641 295.932 173.377 296.4 173.377ZM300.636 174.709C298.656 174.709 297.3 176.017 297.3 177.937C297.3 179.869 298.656 181.189 300.636 181.189C302.604 181.189 303.96 179.869 303.96 177.937C303.96 176.017 302.604 174.709 300.636 174.709ZM300.636 175.885C301.776 175.885 302.58 176.737 302.58 177.961C302.58 179.197 301.776 180.037 300.636 180.037C299.484 180.037 298.68 179.197 298.68 177.961C298.68 176.737 299.484 175.885 300.636 175.885ZM306.78 176.029V174.757H305.4V181.141H306.78V177.805C306.888 176.713 307.704 175.957 308.988 176.029V174.709C307.98 174.709 307.212 175.165 306.78 176.029ZM318.451 174.709C317.287 174.709 316.435 175.177 316.027 176.245C315.727 175.273 314.947 174.709 313.807 174.709C312.751 174.709 311.935 175.093 311.491 175.993V174.757H310.123V181.141H311.491V177.985C311.491 176.869 312.163 176.029 313.267 175.993C314.203 175.993 314.767 176.581 314.767 177.553V181.141H316.147V177.985C316.147 176.869 316.807 176.029 317.899 175.993C318.835 175.993 319.411 176.581 319.411 177.553V181.141H320.791V177.169C320.791 175.645 319.915 174.709 318.451 174.709ZM323.707 172.057L322.291 172.657L323.755 173.833H324.979L323.707 172.057Z" fill="#7B7B7B"/>
<g clip-path="url(#clip0)">
<path d="M141.662 76.3186C130.004 76.3186 120.575 85.425 120.575 96.7236C120.575 108.022 130.004 117.129 141.662 117.129C153.32 117.129 162.749 108.022 162.749 96.7236C162.749 85.425 153.32 76.3186 141.662 76.3186ZM137.204 79.5227L139.433 88.4604C138.233 88.7977 137.204 89.3036 136.176 89.9782L129.49 83.4013C131.718 81.5463 134.29 80.1972 137.204 79.5227ZM141.662 90.1468C145.433 90.1468 148.519 93.0136 148.519 96.7236C148.519 100.434 145.433 103.3 141.662 103.3C137.89 103.3 134.804 100.434 134.804 96.7236C134.804 93.0136 137.89 90.1468 141.662 90.1468ZM127.947 84.9191L134.633 91.4959C133.776 92.5077 133.261 93.6882 132.918 94.8686L123.832 92.6763C124.518 89.8095 125.889 87.1113 127.947 84.9191ZM141.662 114.599C131.547 114.599 123.318 106.673 123.318 96.8922C123.318 96.2177 123.318 95.5431 123.489 94.8686L132.918 97.0609C133.09 101.783 136.861 105.493 141.833 105.493C146.634 105.493 150.748 101.614 150.748 96.8922C150.748 92.1704 146.805 88.2918 141.833 88.2918C141.833 88.2918 141.833 88.2918 141.662 88.2918L139.433 79.1854C140.119 79.0168 140.976 79.0168 141.833 79.0168C151.777 79.0168 160.006 86.9427 160.006 96.7236C160.006 106.505 151.777 114.599 141.662 114.599Z" fill="black"/>
<path d="M174.921 105.999H170.292V87.4486H174.921V105.999Z" fill="black"/>
<path d="M200.294 105.999H195.665V95.7118C195.665 95.2059 195.494 94.5313 195.322 94.1941C195.151 93.6882 194.808 93.3509 194.465 93.0136C194.122 92.6763 193.779 92.5077 193.265 92.3391C192.751 92.1704 192.236 92.0018 191.722 92.0018H183.665V105.999H179.036V89.6409C179.036 89.3036 179.036 88.9663 179.207 88.7977C179.379 88.6291 179.55 88.2918 179.721 88.1232C179.893 87.9545 180.236 87.7859 180.407 87.6172C180.75 87.4486 180.921 87.4486 181.264 87.4486H191.551C192.065 87.4486 192.751 87.4486 193.437 87.6172C194.122 87.7859 194.637 87.9545 195.322 88.2918C196.008 88.6291 196.522 88.9663 197.208 89.3036C197.723 89.8095 198.237 90.3154 198.751 90.8213C199.266 91.4959 199.608 92.1704 199.78 93.0136C200.123 93.8568 200.123 94.7 200.123 95.7118L200.294 105.999Z" fill="black"/>
<path d="M227.21 87.4486C226.696 88.9663 226.01 90.4841 225.324 92.0018C224.639 93.5195 223.781 95.0372 222.924 96.3863C222.067 97.7354 221.038 99.0845 219.838 100.265C218.81 101.445 217.438 102.457 216.067 103.3C214.695 104.144 213.324 104.818 211.609 105.324C210.066 105.83 208.352 105.999 206.466 105.999C206.123 105.999 205.78 105.999 205.609 105.83C205.266 105.661 205.095 105.493 204.923 105.324C204.752 105.155 204.58 104.818 204.409 104.65C204.237 104.312 204.237 104.144 204.237 103.806V87.4486H208.866V101.445C210.066 101.445 211.095 101.277 212.124 100.771C213.152 100.265 214.181 99.7591 215.038 98.9159C215.895 98.0727 216.752 97.2295 217.61 96.2177C218.467 95.2059 219.153 94.1941 219.667 93.1822C220.353 92.1704 220.867 91.1586 221.21 90.1468C221.553 89.135 221.896 88.2918 222.238 87.4486H227.21Z" fill="black"/>
<path d="M249.497 99.7591C249.497 100.602 249.326 101.277 249.154 101.783C248.983 102.457 248.64 102.963 248.297 103.469C247.954 103.975 247.611 104.312 247.097 104.65C246.583 104.987 246.24 105.155 245.725 105.493C245.211 105.661 244.697 105.83 244.354 105.999C243.84 106.167 243.325 106.167 242.982 106.167H234.753C234.068 106.167 233.382 105.999 232.696 105.83C232.01 105.661 231.324 105.324 230.639 104.818C229.953 104.312 229.439 103.638 229.096 102.963C228.753 102.12 228.41 101.277 228.41 100.096V94.0254C228.41 92.845 228.581 91.8332 229.096 91.1586C229.439 90.3154 230.124 89.6409 230.639 89.3036C231.324 88.4604 232.01 88.1232 232.696 87.7859C233.382 87.6172 234.068 87.4486 234.753 87.4486H242.982C244.182 87.4486 245.211 87.6172 245.897 88.1232C246.754 88.4604 247.44 88.9663 247.954 89.6409C248.468 90.3154 248.811 90.99 248.983 91.6645C249.154 92.3391 249.326 93.0136 249.326 93.6882V99.7591H249.497ZM244.868 93.6882C244.868 93.0136 244.697 92.6763 244.354 92.3391C244.011 92.0018 243.497 91.8332 242.982 91.8332H234.753C234.068 91.8332 233.725 92.0018 233.382 92.3391C233.039 92.6763 232.867 93.0136 232.867 93.6882V99.7591C232.867 100.265 233.039 100.771 233.382 101.108C233.725 101.445 234.239 101.614 234.753 101.614H242.982C243.668 101.614 244.011 101.445 244.354 101.108C244.697 100.771 244.868 100.434 244.868 99.7591V93.6882Z" fill="black"/>
</g>
<line x1="52.8669" y1="146.309" x2="317.204" y2="146.309" stroke="#E5E5E5"/>
<defs>
<clipPath id="clip0">
<rect x="120.575" y="76.3186" width="128.923" height="40.81" fill="white"/>
</clipPath>
</defs>
</svg>
