<svg width="18" height="18" viewBox="0 0 18 18" fill="none" xmlns="http://www.w3.org/2000/svg">
<path d="M6.72976 13.0909H5.03027V7.63639H6.72976V13.0909ZM6.89933 5.89857C6.89933 5.35241 6.45359 4.90912 5.90448 4.90912C5.35329 4.90912 4.90869 5.35241 4.90869 5.89857C4.90869 6.44491 5.35329 6.8882 5.90448 6.8882C6.45359 6.8882 6.89933 6.44491 6.89933 5.89857ZM13.0905 10.0901C13.0905 8.62584 12.7793 7.53985 11.0587 7.53985C10.2319 7.53985 9.67693 7.9509 9.45036 8.37836H9.44875V7.63639H7.79782V13.0909H9.44875V10.3827C9.44875 9.67346 9.63036 8.98636 10.5147 8.98636C11.387 8.98636 11.4153 9.79743 11.4153 10.4278V13.0909H13.0905V10.0901Z" fill="#444444"/>
<path fill-rule="evenodd" clip-rule="evenodd" d="M13.9091 1.63636H4.09091C2.7353 1.63636 1.63636 2.7353 1.63636 4.09091V13.9091C1.63636 15.2647 2.7353 16.3636 4.09091 16.3636H13.9091C15.2647 16.3636 16.3636 15.2647 16.3636 13.9091V4.09091C16.3636 2.7353 15.2647 1.63636 13.9091 1.63636ZM4.09091 0C1.83156 0 0 1.83156 0 4.09091V13.9091C0 16.1684 1.83156 18 4.09091 18H13.9091C16.1684 18 18 16.1684 18 13.9091V4.09091C18 1.83156 16.1684 0 13.9091 0H4.09091Z" fill="#444444"/>
</svg>
